digraph {
rankdir=LR
labelloc="t"
node [shape="circle"]
17 [label="17"]
4 [label="4"]
13 [label="13"]
7 [label="7"]
0 [label="0", style="filled", fillcolor="#66cc33"]
12 [label="12"]
5 [label="5"]
14 [label="14"]
15 [label="15"]
6 [label="6"]
3 [label="3"]
9 [label="9"]
8 [label="8"]
11 [label="11"]
16 [label="16"]
10 [label="10"]
2 [label="2"]
1 [label="1", peripheries=2]
0 -> 0 [label="a"]
0 -> 2 [label="a"]
0 -> 0 [label="b"]
4 -> 5 [label="c"]
3 -> 1 [label="a"]
1 -> 1 [label="a"]
1 -> 1 [label="b"]
2 -> 6 [label="a"]
2 -> 6 [label="b"]
5 -> 7 [label="a"]
5 -> 7 [label="b"]
6 -> 8 [label="a"]
6 -> 8 [label="b"]
7 -> 9 [label="a"]
7 -> 9 [label="b"]
8 -> 10 [label="a"]
8 -> 10 [label="b"]
9 -> 11 [label="a"]
9 -> 11 [label="b"]
10 -> 12 [label="a"]
10 -> 12 [label="b"]
11 -> 13 [label="a"]
11 -> 13 [label="b"]
12 -> 14 [label="a"]
12 -> 14 [label="b"]
13 -> 15 [label="a"]
13 -> 15 [label="b"]
14 -> 16 [label="a"]
14 -> 16 [label="b"]
15 -> 17 [label="a"]
15 -> 17 [label="b"]
16 -> 4 [label="a"]
16 -> 4 [label="b"]
17 -> 3 [label="a"]
17 -> 3 [label="b"]
}