digraph {
rankdir=LR
labelloc="t"
node [shape="circle"]
4 [label="4"]
7 [label="7"]
0 [label="0", style="filled", fillcolor="#66cc33"]
5 [label="5"]
3 [label="3"]
2 [label="2"]
6 [label="6"]
1 [label="1", peripheries=2]
0 -> 0 [label="a"]
0 -> 2 [label="a"]
0 -> 0 [label="b"]
4 -> 5 [label="c"]
3 -> 1 [label="a"]
1 -> 1 [label="a"]
1 -> 1 [label="b"]
2 -> 6 [label="a"]
2 -> 6 [label="b"]
5 -> 7 [label="a"]
5 -> 7 [label="b"]
6 -> 4 [label="a"]
6 -> 4 [label="b"]
7 -> 3 [label="a"]
7 -> 3 [label="b"]
}