digraph {
rankdir=LR
labelloc="t"
node [shape="circle"]
98 [label="98"]
99 [label="99", peripheries=2]
100 [label="100", style="filled", fillcolor="#66cc33", peripheries=2]
92 [label="92"]
93 [label="93", peripheries=2]
94 [label="94", style="filled", fillcolor="#66cc33", peripheries=2]
95 [label="95"]
96 [label="96", peripheries=2]
97 [label="97", peripheries=2]
92 -> 93 [label="c"]
93 -> 96 [label="c"]
93 -> 97 [label="c"]
93 -> 92 [label="c"]
93 -> 93 [label="c"]
93 -> 95 [label="c"]
93 -> 100 [label="g"]
94 -> 96 [label="c"]
94 -> 97 [label="c"]
94 -> 92 [label="c"]
94 -> 93 [label="c"]
94 -> 95 [label="c"]
94 -> 99 [label="g"]
95 -> 96 [label="c"]
95 -> 98 [label="h"]
96 -> 96 [label="c"]
96 -> 95 [label="c"]
96 -> 100 [label="h"]
97 -> 96 [label="c"]
97 -> 95 [label="c"]
97 -> 99 [label="g"]
97 -> 100 [label="h"]
97 -> 99 [label="h"]
98 -> 99 [label="g"]
99 -> 99 [label="g"]
99 -> 98 [label="g"]
100 -> 99 [label="g"]
100 -> 98 [label="g"]
}