digraph {
rankdir=LR
labelloc="t"
node [shape="circle"]
299 [label="299"]
300 [label="300", peripheries=2]
292 [label="292"]
293 [label="293"]
294 [label="294"]
295 [label="295", peripheries=2]
296 [label="296", style="filled", fillcolor="#66cc33", peripheries=2]
297 [label="297"]
301 [label="301", style="filled", fillcolor="#66cc33", peripheries=2]
298 [label="298"]
292 -> 293 [label="c"]
292 -> 299 [label="g"]
292 -> 300 [label="g"]
292 -> 300 [label="h"]
293 -> 292 [label="a"]
293 -> 295 [label="a"]
293 -> 298 [label="g"]
294 -> 295 [label="a"]
294 -> 297 [label="h"]
294 -> 299 [label="h"]
294 -> 300 [label="h"]
294 -> 297 [label="g"]
295 -> 293 [label="c"]
295 -> 294 [label="c"]
295 -> 298 [label="g"]
296 -> 293 [label="c"]
296 -> 294 [label="c"]
296 -> 300 [label="h"]
297 -> 298 [label="b"]
298 -> 297 [label="a"]
298 -> 300 [label="a"]
299 -> 300 [label="a"]
300 -> 298 [label="b"]
300 -> 299 [label="b"]
301 -> 298 [label="b"]
301 -> 299 [label="b"]
}