digraph {
rankdir=LR
labelloc="t"
node [shape="circle"]
82 [label="82"]
83 [label="83"]
84 [label="84"]
85 [label="85", peripheries=2]
86 [label="86", style="filled", fillcolor="#66cc33", peripheries=2]
87 [label="87"]
88 [label="88"]
89 [label="89"]
90 [label="90", peripheries=2]
91 [label="91", peripheries=2]
82 -> 83 [label="a"]
82 -> 88 [label="h"]
82 -> 89 [label="g"]
83 -> 82 [label="b"]
83 -> 85 [label="b"]
83 -> 89 [label="g"]
84 -> 85 [label="b"]
84 -> 87 [label="h"]
84 -> 91 [label="h"]
85 -> 83 [label="a"]
85 -> 84 [label="a"]
85 -> 89 [label="h"]
85 -> 91 [label="h"]
86 -> 83 [label="a"]
86 -> 84 [label="a"]
87 -> 88 [label="h"]
88 -> 90 [label="h"]
88 -> 87 [label="h"]
89 -> 90 [label="h"]
90 -> 89 [label="h"]
90 -> 88 [label="h"]
91 -> 89 [label="h"]
91 -> 88 [label="h"]
}