digraph {
rankdir=LR
labelloc="t"
node [shape="circle"]
0 [label="0", style="filled", fillcolor="#66cc33"]
1 [label="1", peripheries=2]
2 [label="2"]
3 [label="3", peripheries=2]
5 [label="5"]
6 [label="6"]
4 [label="4", peripheries=2]
0 -> 1 [label="c"]
0 -> 4 [label="g"]
1 -> 2 [label="c"]
1 -> 3 [label="c"]
2 -> 3 [label="c"]
2 -> 6 [label="h"]
2 -> 5 [label="g"]
3 -> 2 [label="c"]
3 -> 3 [label="c"]
5 -> 6 [label="h"]
6 -> 4 [label="a"]
}