digraph {
rankdir=LR
labelloc="t"
node [shape="circle"]
216 [label="216"]
217 [label="217", peripheries=2]
218 [label="218", style="filled", fillcolor="#66cc33", peripheries=2]
212 [label="212", style="filled", fillcolor="#66cc33"]
213 [label="213"]
214 [label="214"]
215 [label="215"]
212 -> 213 [label="h"]
213 -> 216 [label="h"]
213 -> 214 [label="h"]
213 -> 215 [label="h"]
213 -> 218 [label="g"]
213 -> 216 [label="g"]
214 -> 216 [label="h"]
214 -> 215 [label="h"]
214 -> 218 [label="g"]
215 -> 214 [label="h"]
215 -> 215 [label="h"]
216 -> 217 [label="a"]
217 -> 216 [label="a"]
217 -> 217 [label="a"]
218 -> 216 [label="a"]
218 -> 217 [label="a"]
}