digraph {
rankdir=LR
labelloc="t"
node [shape="circle"]
34 [label="34", peripheries=2]
33 [label="33", peripheries=2]
32 [label="32"]
28 [label="28", style="filled", fillcolor="#66cc33"]
29 [label="29"]
31 [label="31", peripheries=2]
28 -> 29 [label="c"]
28 -> 32 [label="h"]
29 -> 31 [label="a"]
29 -> 34 [label="g"]
31 -> 32 [label="g"]
32 -> 33 [label="h"]
33 -> 32 [label="h"]
33 -> 33 [label="h"]
34 -> 32 [label="h"]
34 -> 33 [label="h"]
}