digraph {
rankdir=LR
labelloc="t"
node [shape="circle"]
288 [label="288"]
289 [label="289", peripheries=2]
290 [label="290", style="filled", fillcolor="#66cc33", peripheries=2]
284 [label="284", style="filled", fillcolor="#66cc33"]
285 [label="285", peripheries=2]
286 [label="286"]
287 [label="287", peripheries=2]
284 -> 285 [label="g"]
285 -> 286 [label="a"]
285 -> 287 [label="a"]
285 -> 289 [label="g"]
286 -> 287 [label="a"]
287 -> 286 [label="a"]
287 -> 287 [label="a"]
287 -> 289 [label="h"]
288 -> 289 [label="a"]
289 -> 288 [label="a"]
289 -> 289 [label="a"]
290 -> 288 [label="a"]
290 -> 289 [label="a"]
}