digraph {
rankdir=LR
labelloc="t"
node [shape="circle"]
363 [label="363", peripheries=2]
358 [label="358"]
359 [label="359", peripheries=2]
360 [label="360", style="filled", fillcolor="#66cc33", peripheries=2]
362 [label="362", peripheries=2]
361 [label="361"]
364 [label="364", style="filled", fillcolor="#66cc33", peripheries=2]
358 -> 359 [label="g"]
359 -> 362 [label="g"]
359 -> 358 [label="g"]
359 -> 359 [label="g"]
359 -> 361 [label="h"]
360 -> 361 [label="g"]
360 -> 364 [label="g"]
360 -> 358 [label="g"]
360 -> 359 [label="g"]
360 -> 361 [label="h"]
361 -> 362 [label="c"]
362 -> 362 [label="c"]
362 -> 361 [label="c"]
364 -> 363 [label="a"]
364 -> 362 [label="c"]
364 -> 361 [label="c"]
}